question,user_answer,correct_answer,score
Step by step list of instructions that if followed exactly will solve the problem under consideration is called a/an ___,algorithm,algorithm,0.99999994
What is the command to print something in Python?,print,print,1.0000001
___ is a notation that is more precise than English but generally not as precise as a programming language,pseudocode,pseudocode,0.9999999
Which loop (in Python) would you use if you want to receive input from the user of your program but you don’t know how long it’ll take for them to be done with your code,while,while,0.99999994
Comment 'this word' in Python,#this word,#this word,1.0
How do you write 'snake code' in camel code,SnakeCode,SnakeCode,0.99999994
How can you determine the type of a variable?,type,type,1.0
What is the data type of ‘this is what kind of data’?,string,string,0.9999999
"After the following statements, what is the value of y ? x = 15 y = x x = 2023",15,15,0.9999999
What is a built-in Python function that returns the number of characters in a string?,len,len,1.0
What is debugging?,finding bugs in a code and fixing them,tracking down programming errors and correcting them,0.8081819
Who or what typically finds syntax errors?,"compiler, interpreter",compiler / interpreter,0.723538
___ is a file containing Python definitions and statements intended for use in other Python programs,module,module,1.0
What is a first step to use modules in Python?,import, importing,0.08692241
Let's say you want to create a program that picks a natural number and student should answer if that is divisible by 3 or not. Which Python module would you use for randomness of that picked number?,random,random,1.0000001
The correct code to generate a random number between 1 and 100 (inclusive) is prob = ?,"random.randrange(1,101)",random.randrange(1 comma 101),0.6034172
One reason that lotteries don’t use computers to generate random numbers is:,because they are based on algorithm and dont really generate random numbers,Because computers don’t really generate random numbers they generate pseudo-random numbers,0.6459381
